Chapter 13 Working with date-time data | Data Analysis and Visualization using R
…
When working in a lab you will often encounter time-measured data. For instance, growth curves, animal behavior observations etc.

The tidyverse package lubridate can help you with that. It is quite an expensive package; only the bare essentials will be dealt with here. For a bit more complete overview have a look at the cheat sheet.

A small fictitious dataset will be used here to explore some of the concepts. It can be found in file data/time_series_drug_test.txt.

ts <- read.table("data/time_series_drug_test.txt", 
                 header = T,
                 sep = ";",
                 as.is = 2:3)
ts <- as_tibble(ts)
ts

## # A tibble: 48 × 5
##   subject date       time  control response
##   <fct>   <chr>      <chr> <fct>      <int>
## 1 S001    29/12/2019 07:44 n              2
## 2 S001    29/12/2019 12:06 n             68
## 3 S001    29/12/2019 17:28 n            112
## 4 S001    29/12/2019 22:01 n             82
## 5 S001    30/12/2019 07:22 n             63
## 6 S001    30/12/2019 12:05 n             57
## # ℹ 42 more rows
…
As practice, you could try to generate a response plot like this where subjects 1 to 3 have corrected values based on the non-treated group.

13.1.4 Calculations with date-time

The example below shows the most basic calculation: the difference between two date-time objects.

ts %>% 
    group_by(subject) %>%
    select(subject, date_time) %>% 
    mutate(lagged = lag(date_time), 
           diff = date_time - lagged) 

## # A tibble: 48 × 4
## # Groups:   subject [6]
##   subject date_time           lagged              diff      
##   <fct>   <dttm>              <dttm>              <drtn>    
## 1 S001    2019-12-29 07:44:00 NA                    NA hours
## 2 S001    2019-12-29 12:06:00 2019-12-29 07:44:00 4.37 hours
## 3 S001    2019-12-29 17:28:00 2019-12-29 12:06:00 5.37 hours
## 4 S001    2019-12-29 22:01:00 2019-12-29 17:28:00 4.55 hours
## 5 S001    2019-12-30 07:22:00 2019-12-29 22:01:00 9.35 hours
## 6 S001    2019-12-30 12:05:00 2019-12-30 07:22:00 4.72 hours
## # ℹ 42 more rows
…
