Chapter 15 Exploratory Data Analysis II | Data Analysis and Visualization using R
…
They are advertised as a boolean, but are they?

This kind of inspection should make you aware of possible problems that are going to arise later on. Booleans are very different from numbers after all. What is even more dangerous is that they can be treated interchangeably - in R you can treat a logical as an integer and an integer in a boolean context.

This kind of discrepancy is the first thing you should address after loading your data. We’ll get back to this shortly.

I will now first change the column names to something shorter, using the codebook. Also, the data will be converted into a tibble because this is really a nicer data structure:

names(data) <- codebook[,1]
data <- as_tibble(data)
data

## # A tibble: 858 × 36
##     age num.partners first.sex num.preg smoker smoke.years smokes.packs.year
##   <int>        <dbl>     <dbl>    <dbl>  <dbl>       <dbl>             <dbl>
## 1    18            4        15        1      0           0                 0
## 2    15            1        14        1      0           0                 0
## 3    34            1        NA        1      0           0                 0
## 4    52            5        16        4      1          37                37
## 5    46            3        21        4      0           0                 0
## 6    42            3        23        2      0           0                 0
## # ℹ 852 more rows
## # ℹ 29 more variables: horm.contracept.ever <dbl>, horm.contracept.years <dbl>,
## #   IUD.ever <dbl>, IUD.years <dbl>, STD.ever <dbl>, STDs.number <dbl>,
## #   STD_condylomatosis <dbl>, STD_cervical.cond <dbl>, STD_vaginal.cond <dbl>,
## #   STD_vulvo.per.cond <dbl>, STD_syph <dbl>, STD_pid <dbl>,
## #   STD_gen.herpes <dbl>, STD_moll.cont <dbl>, STD_aids <dbl>, STD_hiv <dbl>,
## #   STD_hepB <dbl>, STD_HPV <dbl>, STD.num.diagn <int>, …
…
Getting it right in the end

Here, for demonstration purposes I use a wrapper function read.csv() instead of read.table(). The tidyverse has data reading facilities as well of course, but these were not dealt with in this course.

data <- read.csv(datafile, na.strings = "?")
names(data) <- codebook[,1]
for(i in 1:nrow(codebook)) {
  if(codebook[i, 2] == "logical"){
    data[,i] <- as.logical(data[,i])
  }
}
(data <- as_tibble(data))

## # A tibble: 858 × 36
##     age num.partners first.sex num.preg smoker smoke.years smokes.packs.year
##   <int>        <dbl>     <dbl>    <dbl> <lgl>        <dbl>             <dbl>
## 1    18            4        15        1 FALSE            0                 0
## 2    15            1        14        1 FALSE            0                 0
## 3    34            1        NA        1 FALSE            0                 0
## 4    52            5        16        4 TRUE            37                37
## 5    46            3        21        4 FALSE            0                 0
## 6    42            3        23        2 FALSE            0                 0
## # ℹ 852 more rows
## # ℹ 29 more variables: horm.contracept.ever <lgl>, horm.contracept.years <dbl>,
## #   IUD.ever <lgl>, IUD.years <dbl>, STD.ever <lgl>, STDs.number <dbl>,
## #   STD_condylomatosis <lgl>, STD_cervical.cond <lgl>, STD_vaginal.cond <lgl>,
## #   STD_vulvo.per.cond <lgl>, STD_syph <lgl>, STD_pid <lgl>,
## #   STD_gen.herpes <lgl>, STD_moll.cont <lgl>, STD_aids <lgl>, STD_hiv <lgl>,
## #   STD_hepB <lgl>, STD_HPV <lgl>, STD.num.diagn <int>, …
…
data[4, c(1, 5, 6, 7)]

## # A tibble: 1 × 4
##     age smoker smoke.years smokes.packs.year
##   <int> <lgl>        <dbl>             <dbl>
## 1    52 TRUE            37                37

Let’s look at the values in the the smoker columns in another way:

data %>% 
    select(smoker, smoke.years, smokes.packs.year) %>%
    drop_na() %>%
    filter(smoke.years > 0 & smoke.years == smokes.packs.year)

## # A tibble: 14 × 3
##   smoker smoke.years smokes.packs.year
##   <lgl>        <dbl>             <dbl>
## 1 TRUE            37                37
## 2 TRUE            19                19
## 3 TRUE            21                21
## 4 TRUE            15                15
## 5 TRUE            12                12
## 6 TRUE             5                 5
## # ℹ 8 more rows
…
## 
##    0    1    2    3    4 <NA> 
##  674   34   37    7    1  105

Only 79 subjects have STDs (luckily!).

These are the counts of occurrences of individual STDs:

They are listed below. You can see a nice application of the gather() function to put the results in long format instead of wide.

clean_data %>%
    summarise_at(std_columns, function(x) sum(x, na.rm = T)) %>%
    gather(key = "disease", value = "count", everything()) 

## # A tibble: 12 × 2
##   disease            count
##   <chr>              <int>
## 1 STD_condylomatosis    44
## 2 STD_cervical.cond      0
## 3 STD_vaginal.cond       4
## 4 STD_vulvo.per.cond    43
## 5 STD_syph              18
## 6 STD_pid                1
## # ℹ 6 more rows
…
Now the same procedure for the cervical cancer dataset, with a selection of numerical variables.

selection <- c("num.partners", "first.sex", "num.preg", "horm.contracept.years", "IUD.years", "STDs.number", "target.biopsy")
tmp <- clean_data %>% select(selection) %>% drop_na()
tmp

## # A tibble: 676 × 7
##   num.partners first.sex num.preg horm.contracept.years IUD.years STDs.number
##          <dbl>     <dbl>    <dbl>                 <dbl>     <dbl>       <dbl>
## 1            4        15        1                     0         0           0
## 2            1        14        1                     0         0           0
## 3            5        16        4                     3         0           0
## 4            3        21        4                    15         0           0
## 5            3        23        2                     0         0           0
## 6            3        17        6                     0         7           0
## # ℹ 670 more rows
## # ℹ 1 more variable: target.biopsy <lgl>
…
