Chapter 17 Packages | Data Analysis and Visualization using R
…
I used the tidyr::pivot_longer function to transform the data from wide to long format.

Run devtools::load_all() in the console of RStudio to load the package into the current R session.
Output will be something like:

ℹ Loading demopackage
✔ Saving 'growth_data' to 'data/growth_data.rda'
• Document your data (see 'https://r-pkgs.org/data.html')

Do not ignore warnings! The warning about documenting your data is important.

Now, when you type in the console growth_data, or demopackage::growth_data,
you will see the data object printed to the console.

# A tibble: 44 × 4
   minutes condition duplo OD600
     <dbl> <chr>     <chr> <dbl>
 1       0 control   A     0.023
 2       0 control   B     0.022
 3       0 agentX    A     0.023
 4       0 agentX    B     0.018
 5      16 control   A     0.035
 6      16 control   B     0.031
 7      16 agentX    A     0.022
 8      16 agentX    B     0.019
 9      32 control   A     0.059
10      32 control   B     0.062
# ℹ 34 more rows
# ℹ Use `print(n = ...)` to see more rows
…
